verilog/iiitb_icg_tb.vcd
$date
	Thu Aug 11 20:32:07 2022
$end
$version
	Icarus Verilog
$end
$timescale
	1ps
$end
$scope module iiitb_icg_tb $end
$var wire 1 ! q1 $end
$var wire 1 " q0 $end
$var reg 1 # clk $end
$var reg 1 $ d0 $end
$var reg 1 % d1 $end
$var reg 1 & in $end
$scope module uut $end
$var wire 1 ' _01_ $end
$var wire 1 ( _04_ $end
$var wire 1 ) _05_ $end
$var wire 1 * cgclk $end
$var wire 1 # clk $end
$var wire 1 + clk_n $end
$var wire 1 $ d0 $end
$var wire 1 % d1 $end
$var wire 1 , \dff1.clock $end
$var wire 1 - \dff1.d $end
$var wire 1 . \dff2.clock $end
$var wire 1 / \dff2.d $end
$var wire 1 0 en $end
$var wire 1 & in $end
$var wire 1 1 n1 $end
$var wire 1 2 n3 $end
$var wire 1 3 n4 $end
$var wire 1 4 n5 $end
$var wire 1 5 q_l $end
$var wire 1 ! q1 $end
$var wire 1 " q0 $end
$var wire 1 6 \dff2.q $end
$var wire 1 7 \dff1.q $end
$var wire 1 8 _03_ $end
$var wire 1 9 _02_ $end
$var wire 1 : _00_ $end
$scope module _06_ $end
$var wire 1 ' A $end
$var wire 1 ; VGND $end
$var wire 1 < VNB $end
$var wire 1 = VPB $end
$var wire 1 > VPWR $end
$var wire 1 9 Y $end
$scope module base $end
$var wire 1 ' A $end
$var wire 1 9 Y $end
$var wire 1 ? not0_out_Y $end
$upscope $end
$upscope $end
$scope module _07_ $end
$var wire 1 ( A $end
$var wire 1 @ VGND $end
$var wire 1 A VNB $end
$var wire 1 B VPB $end
$var wire 1 C VPWR $end
$var wire 1 8 Y $end
$scope module base $end
$var wire 1 ( A $end
$var wire 1 8 Y $end
$var wire 1 D not0_out_Y $end
$upscope $end
$upscope $end
$scope module _08_ $end
$var wire 1 ' A $end
$var wire 1 ) B $end
$var wire 1 E VGND $end
$var wire 1 F VNB $end
$var wire 1 G VPB $end
$var wire 1 H VPWR $end
$var wire 1 : X $end
$scope module base $end
$var wire 1 ' A $end
$var wire 1 ) B $end
$var wire 1 : X $end
$var wire 1 I and0_out_X $end
$upscope $end
$upscope $end
$scope module _09_ $end
$var wire 1 * CLK $end
$var wire 1 % D $end
$var wire 1 J VGND $end
$var wire 1 K VNB $end
$var wire 1 L VPB $end
$var wire 1 M VPWR $end
$var wire 1 ! Q $end
$scope module base $end
$var wire 1 * CLK $end
$var wire 1 % D $end
$var wire 1 ! Q $end
$var wire 1 N buf_Q $end
$upscope $end
$upscope $end
$scope module _10_ $end
$var wire 1 * CLK $end
$var wire 1 $ D $end
$var wire 1 O VGND $end
$var wire 1 P VNB $end
$var wire 1 Q VPB $end
$var wire 1 R VPWR $end
$var wire 1 " Q $end
$scope module base $end
$var wire 1 * CLK $end
$var wire 1 $ D $end
$var wire 1 " Q $end
$var wire 1 S buf_Q $end
$upscope $end
$upscope $end
$scope module _11_ $end
$var wire 1 , CLK $end
$var wire 1 - D $end
$var wire 1 T VGND $end
$var wire 1 U VNB $end
$var wire 1 V VPB $end
$var wire 1 W VPWR $end
$var wire 1 7 Q $end
$scope module base $end
$var wire 1 , CLK $end
$var wire 1 - D $end
$var wire 1 7 Q $end
$var wire 1 X buf_Q $end
$upscope $end
$upscope $end
$scope module _12_ $end
$var wire 1 . CLK $end
$var wire 1 / D $end
$var wire 1 Y VGND $end
$var wire 1 Z VNB $end
$var wire 1 [ VPB $end
$var wire 1 \ VPWR $end
$var wire 1 6 Q $end
$scope module base $end
$var wire 1 . CLK $end
$var wire 1 / D $end
$var wire 1 6 Q $end
$var wire 1 ] buf_Q $end
$upscope $end
$upscope $end
$upscope $end
$upscope $end
$enddefinitions $end
#0
$dumpvars
x]
1\
1[
0Z
0Y
xX
1W
1V
0U
0T
xS
1R
1Q
0P
0O
xN
1M
1L
0K
0J
0I
1H
1G
0F
0E
xD
1C
1B
0A
0@
1?
1>
1=
0<
0;
0:
19
x8
x7
x6
x5
04
x3
x2
x1
x0
x/
1.
0-
0,
1+
0*
x)
x(
0'
0&
0%
0$
0#
x"
x!
$end
#20000
1-
1&
#30000
0.
0+
09
x*
x:
0?
xI
1'
1,
1#
#31000
0/
03
00
08
0D
1(
12
11
17
1X
#40000
0-
0&
1$
#50000
1%
#60000
1-
1&
1.
1+
19
0*
0:
1?
0I
0'
0,
0#
#61000
0)
05
06
0]
#80000
0-
0&
0$
#90000
0.
0+
09
0?
1'
1,
1#
#91000
1/
13
10
18
1D
0(
02
01
07
0X
#100000
1-
1&
0%
#120000
0-
0&
1$
1.
1+
19
1?
0'
0,
0#
#121000
1)
15
16
1]
#140000
1-
1&
#150000
1%
0.
0+
09
1*
1:
0?
1I
1'
1,
1#
#151000
0/
03
00
08
0D
0!
1"
1(
12
11
17
0N
1S
1X
#160000
0-
0&
0$
#180000
1-
1&
1.
1+
19
0*
0:
1?
0I
0'
0,
0#
#181000
0)
05
06
0]
#200000
0-
0&
1$
0%
#210000
0.
0+
09
0?
1'
1,
1#
#211000
1/
13
10
18
1D
0(
02
01
07
0X
#220000
1-
1&
#240000
0-
0&
0$
1.
1+
19
1?
0'
0,
0#
#241000
1)
15
16
1]
#250000
1%
#260000
1-
1&
#270000
0.
0+
09
1*
1:
0?
1I
1'
1,
1#
#271000
0/
03
00
08
0D
1!
0"
1(
12
11
17
1N
0S
1X
#280000
0-
0&
1$
#300000
1-
1&
0%
1.
1+
19
0*
0:
1?
0I
0'
0,
0#
#301000
0)
05
06
0]
#320000
0-
0&
0$
#330000
0.
0+
09
0?
1'
1,
1#
#331000
1/
13
10
18
1D
0(
02
01
07
0X
#340000
1-
1&
#350000
1%
#360000
0-
0&
1$
1.
1+
19
1?
0'
0,
0#
#361000
1)
15
16
1]
#380000
1-
1&
#390000
0.
0+
09
1*
1:
0?
1I
1'
1,
1#
#391000
0/
03
00
08
0D
1"
1(
12
11
17
1S
1X
#400000
0-
0&
0$
0%
#420000
1-
1&
1.
1+
19
0*
0:
1?
0I
0'
0,
0#
#421000
0)
05
06
0]
#440000
0-
0&
1$
#450000
1%
0.
0+
09
0?
1'
1,
1#
#451000
1/
13
10
18
1D
0(
02
01
07
0X
#460000
1-
1&
#480000
0-
0&
0$
1.
1+
19
1?
0'
0,
0#
#481000
1)
15
16
1]
#500000
1-
1&
0%
#510000
0.
0+
09
1*
1:
0?
1I
1'
1,
1#
#511000
0/
03
00
08
0D
0!
0"
1(
12
11
17
0N
0S
1X
#520000
0-
0&
1$
#540000
1-
1&
1.
1+
19
0*
0:
1?
0I
0'
0,
0#
#541000
0)
05
06
0]
#550000
1%
#560000
0-
0&
0$
#570000
0.
0+
09
0?
1'
1,
1#
#571000
1/
13
10
18
1D
0(
02
01
07
0X
#580000
1-
1&
#600000
0-
0&
1$
0%
1.
1+
19
1?
0'
0,
0#
#601000
1)
15
16
1]
#620000
1-
1&
#630000
0.
0+
09
1*
1:
0?
1I
1'
1,
1#
#631000
0/
03
00
08
0D
1"
1(
12
11
17
1S
1X
#640000
0-
0&
0$
#650000
1%
#660000
1-
1&
1.
1+
19
0*
0:
1?
0I
0'
0,
0#
#661000
0)
05
06
0]
#680000
0-
0&
1$
#690000
0.
0+
09
0?
1'
1,
1#
#691000
1/
13
10
18
1D
0(
02
01
07
0X
#700000
1-
1&
0%
#720000
0-
0&
0$
1.
1+
19
1?
0'
0,
0#
#721000
1)
15
16
1]
#740000
1-
1&
#750000
1%
0.
0+
09
1*
1:
0?
1I
1'
1,
1#
#751000
0/
03
00
08
0D
0"
1(
12
11
17
0S
1X
#760000
0-
0&
1$
#780000
1-
1&
1.
1+
19
0*
0:
1?
0I
0'
0,
0#
#781000
0)
05
06
0]
#800000
0-
0&
0$
0%
#810000
0.
0+
09
0?
1'
1,
1#
#811000
1/
13
10
18
1D
0(
02
01
07
0X
#820000
1-
1&
#840000
0-
0&
1$
1.
1+
19
1?
0'
0,
0#
#841000
1)
15
16
1]
#850000
1%
#860000
1-
1&
#870000
0.
0+
09
1*
1:
0?
1I
1'
1,
1#
#871000
0/
03
00
08
0D
1!
1"
1(
12
11
17
1N
1S
1X
#880000
0-
0&
0$
#900000
1-
1&
0%
1.
1+
19
0*
0:
1?
0I
0'
0,
0#
#901000
0)
05
06
0]
#920000
0-
0&
1$
#930000
0.
0+
09
0?
1'
1,
1#
#931000
1/
13
10
18
1D
0(
02
01
07
0X
#940000
1-
1&
#950000
1%
#960000
0-
0&
0$
1.
1+
19
1?
0'
0,
0#
#961000
1)
15
16
1]
#980000
1-
1&
#990000
0.
0+
09
1*
1:
0?
1I
1'
1,
1#
#991000
0/
03
00
08
0D
0"
1(
12
11
17
0S
1X
#1000000
0-
0&
1$
0%
#1020000
1-
1&
1.
1+
19
0*
0:
1?
0I
0'
0,
0#
#1021000
0)
05
06
0]
#1040000
0-
0&
0$
#1050000
1%
0.
0+
09
0?
1'
1,
1#
#1051000
1/
13
10
18
1D
0(
02
01
07
0X
#1060000
1-
1&
#1080000
0-
0&
1$
1.
1+
19
1?
0'
0,
0#
#1081000
1)
15
16
1]
#1100000
1-
1&
0%
#1110000
0.
0+
09
1*
1:
0?
1I
1'
1,
1#
#1111000
0/
03
00
08
0D
0!
1"
1(
12
11
17
0N
1S
1X
#1120000
0-
0&
0$
#1140000
1-
1&
1.
1+
19
0*
0:
1?
0I
0'
0,
0#
#1141000
0)
05
06
0]
#1150000
1%
#1160000
0-
0&
1$
#1170000
0.
0+
09
0?
1'
1,
1#
#1171000
1/
13
10
18
1D
0(
02
01
07
0X
#1180000
1-
1&
#1200000
0-
0&
0$
0%
1.
1+
19
1?
0'
0,
0#
#1201000
1)
15
16
1]
#1220000
1-
1&
#1230000
0.
0+
09
1*
1:
0?
1I
1'
1,
1#
#1231000
0/
03
00
08
0D
0"
1(
12
11
17
0S
1X
#1240000
0-
0&
1$
#1250000
1%
#1260000
1-
1&
1.
1+
19
0*
0:
1?
0I
0'
0,
0#
#1261000
0)
05
06
0]
#1280000
0-
0&
0$
#1290000
0.
0+
09
0?
1'
1,
1#
#1291000
1/
13
10
18
1D
0(
02
01
07
0X
#1300000
1-
1&
0%
#1320000
0-
0&
1$
1.
1+
19
1?
0'
0,
0#
#1321000
1)
15
16
1]
#1340000
1-
1&
#1350000
1%
0.
0+
09
1*
1:
0?
1I
1'
1,
1#
#1351000
0/
03
00
08
0D
1"
1(
12
11
17
1S
1X
#1360000
0-
0&
0$
#1380000
1-
1&
1.
1+
19
0*
0:
1?
0I
0'
0,
0#
#1381000
0)
05
06
0]
#1400000
0-
0&
1$
0%
#1410000
0.
0+
09
0?
1'
1,
1#
#1411000
1/
13
10
18
1D
0(
02
01
07
0X
#1420000
1-
1&
#1440000
0-
0&
0$
1.
1+
19
1?
0'
0,
0#
#1441000
1)
15
16
1]
#1450000
1%
#1460000
1-
1&
#1470000
0.
0+
09
1*
1:
0?
1I
1'
1,
1#
#1471000
0/
03
00
08
0D
1!
0"
1(
12
11
17
1N
0S
1X
#1480000
0-
0&
1$
#1500000
1-
1&
0%
1.
1+
19
0*
0:
1?
0I
0'
0,
0#
#1501000
0)
05
06
0]
#1520000
0-
0&
0$
#1530000
0.
0+
09
0?
1'
1,
1#
#1531000
1/
13
10
18
1D
0(
02
01
07
0X
#1540000
1-
1&
#1550000
1%
#1560000
0-
0&
1$
1.
1+
19
1?
0'
0,
0#
#1561000
1)
15
16
1]
#1580000
1-
1&
#1590000
0.
0+
09
1*
1:
0?
1I
1'
1,
1#
#1591000
0/
03
00
08
0D
1"
1(
12
11
17
1S
1X
#1600000
0-
0&
0$
0%
#1620000
1-
1&
1.
1+
19
0*
0:
1?
0I
0'
0,
0#
#1621000
0)
05
06
0]
#1640000
0-
0&
1$
#1650000
1%
0.
0+
09
0?
1'
1,
1#
#1651000
1/
13
10
18
1D
0(
02
01
07
0X
#1660000
1-
1&
#1680000
0-
0&
0$
1.
1+
19
1?
0'
0,
0#
#1681000
1)
15
16
1]
#1700000
1-
1&
0%
#1710000
0.
0+
09
1*
1:
0?
1I
1'
1,
1#
#1711000
0/
03
00
08
0D
0!
0"
1(
12
11
17
0N
0S
1X
#1720000
0-
0&
1$
#1740000
1-
1&
1.
1+
19
0*
0:
1?
0I
0'
0,
0#
#1741000
0)
05
06
0]
#1750000
1%
#1760000
0-
0&
0$
#1770000
0.
0+
09
0?
1'
1,
1#
#1771000
1/
13
10
18
1D
0(
02
01
07
0X
#1780000
1-
1&
#1800000
0-
0&
1$
0%
1.
1+
19
1?
0'
0,
0#
#1801000
1)
15
16
1]
#1820000
1-
1&
#1830000
0.
0+
09
1*
1:
0?
1I
1'
1,
1#
#1831000
0/
03
00
08
0D
1"
1(
12
11
17
1S
1X
#1840000
0-
0&
0$
#1850000
1%
#1860000
1-
1&
1.
1+
19
0*
0:
1?
0I
0'
0,
0#
#1861000
0)
05
06
0]
#1880000
0-
0&
1$
#1890000
0.
0+
09
0?
1'
1,
1#
#1891000
1/
13
10
18
1D
0(
02
01
07
0X
#1900000
1-
1&
0%
#1920000
0-
0&
0$
1.
1+
19
1?
0'
0,
0#
#1921000
1)
15
16
1]
#1940000
1-
1&
#1950000
1%
0.
0+
09
1*
1:
0?
1I
1'
1,
1#
#1951000
0/
03
00
08
0D
0"
1(
12
11
17
0S
1X
#1960000
0-
0&
1$
#1980000
1-
1&
1.
1+
19
0*
0:
1?
0I
0'
0,
0#
#1981000
0)
05
06
0]
#2000000
0-
0&
0$
0%
#2010000
0.
0+
09
0?
1'
1,
1#
#2011000
1/
13
10
18
1D
0(
02
01
07
0X
#2020000
1-
1&
#2040000
0-
0&
1$
1.
1+
19
1?
0'
0,
0#
#2041000
1)
15
16
1]
#2050000
1%
#2060000
1-
1&
#2070000
0.
0+
09
1*
1:
0?
1I
1'
1,
1#
#2071000
0/
03
00
08
0D
1!
1"
1(
12
11
17
1N
1S
1X
#2080000
0-
0&
0$
#2100000
1-
1&
0%
1.
1+
19
0*
0:
1?
0I
0'
0,
0#
#2101000
0)
05
06
0]
#2120000
0-
0&
1$
#2130000
0.
0+
09
0?
1'
1,
1#
#2131000
1/
13
10
18
1D
0(
02
01
07
0X
#2140000
1-
1&
#2150000
1%
#2160000
0-
0&
0$
1.
1+
19
1?
0'
0,
0#
#2161000
1)
15
16
1]
#2180000
1-
1&
#2190000
0.
0+
09
1*
1:
0?
1I
1'
1,
1#
#2191000
0/
03
00
08
0D
0"
1(
12
11
17
0S
1X
#2200000
0-
0&
1$
0%
#2220000
1-
1&
1.
1+
19
0*
0:
1?
0I
0'
0,
0#
#2221000
0)
05
06
0]
#2240000
0-
0&
0$
#2250000
1%
0.
0+
09
0?
1'
1,
1#
#2251000
1/
13
10
18
1D
0(
02
01
07
0X
#2260000
1-
1&
#2280000
0-
0&
1$
1.
1+
19
1?
0'
0,
0#
#2281000
1)
15
16
1]
#2300000
1-
1&
0%
#2310000
0.
0+
09
1*
1:
0?
1I
1'
1,
1#
#2311000
0/
03
00
08
0D
0!
1"
1(
12
11
17
0N
1S
1X
#2320000
0-
0&
0$
#2340000
1-
1&
1.
1+
19
0*
0:
1?
0I
0'
0,
0#
#2341000
0)
05
06
0]
#2350000
1%
#2360000
0-
0&
1$
#2370000
0.
0+
09
0?
1'
1,
1#
#2371000
1/
13
10
18
1D
0(
02
01
07
0X
#2380000
1-
1&
#2400000
0-
0&
0$
0%
1.
1+
19
1?
0'
0,
0#
#2401000
1)
15
16
1]
#2420000
1-
1&
#2430000
0.
0+
09
1*
1:
0?
1I
1'
1,
1#
#2431000
0/
03
00
08
0D
0"
1(
12
11
17
0S
1X
#2440000
0-
0&
1$
#2450000
1%
#2460000
1-
1&
1.
1+
19
0*
0:
1?
0I
0'
0,
0#
#2461000
0)
05
06
0]
#2480000
0-
0&
0$
#2490000
0.
0+
09
0?
1'
1,
1#
#2491000
1/
13
10
18
1D
0(
02
01
07
0X
#2500000
1-
1&
0%
#2520000
0-
0&
1$
1.
1+
19
1?
0'
0,
0#
#2521000
1)
15
16
1]
#2540000
1-
1&
#2550000
1%
0.
0+
09
1*
1:
0?
1I
1'
1,
1#
#2551000
0/
03
00
08
0D
1"
1(
12
11
17
1S
1X
#2560000
0-
0&
0$
#2580000
1-
1&
1.
1+
19
0*
0:
1?
0I
0'
0,
0#
#2581000
0)
05
06
0]
#2600000
0-
0&
1$
0%
#2610000
0.
0+
09
0?
1'
1,
1#
#2611000
1/
13
10
18
1D
0(
02
01
07
0X
#2620000
1-
1&
#2640000
0-
0&
0$
1.
1+
19
1?
0'
0,
0#
#2641000
1)
15
16
1]
#2650000
1%
#2660000
1-
1&
#2670000
0.
0+
09
1*
1:
0?
1I
1'
1,
1#
#2671000
0/
03
00
08
0D
1!
0"
1(
12
11
17
1N
0S
1X
#2680000
0-
0&
1$
#2700000
1-
1&
0%
1.
1+
19
0*
0:
1?
0I
0'
0,
0#
#2701000
0)
05
06
0]
#2720000
0-
0&
0$
#2730000
0.
0+
09
0?
1'
1,
1#
#2731000
1/
13
10
18
1D
0(
02
01
07
0X
#2740000
1-
1&
#2750000
1%
#2760000
0-
0&
1$
1.
1+
19
1?
0'
0,
0#
#2761000
1)
15
16
1]
#2780000
1-
1&
#2790000
0.
0+
09
1*
1:
0?
1I
1'
1,
1#
#2791000
0/
03
00
08
0D
1"
1(
12
11
17
1S
1X
#2800000
0-
0&
0$
0%
#2820000
1-
1&
1.
1+
19
0*
0:
1?
0I
0'
0,
0#
#2821000
0)
05
06
0]
#2840000
0-
0&
1$
#2850000
1%
0.
0+
09
0?
1'
1,
1#
#2851000
1/
13
10
18
1D
0(
02
01
07
0X
#2860000
1-
1&
#2880000
0-
0&
0$
1.
1+
19
1?
0'
0,
0#
#2881000
1)
15
16
1]
#2900000
1-
1&
0%
#2910000
0.
0+
09
1*
1:
0?
1I
1'
1,
1#
#2911000
0/
03
00
08
0D
0!
0"
1(
12
11
17
0N
0S
1X
#2920000
0-
0&
1$
#2940000
1-
1&
1.
1+
19
0*
0:
1?
0I
0'
0,
0#
#2941000
0)
05
06
0]
#2950000
1%
#2960000
0-
0&
0$
#2970000
0.
0+
09
0?
1'
1,
1#
#2971000
1/
13
10
18
1D
0(
02
01
07
0X
#2980000
1-
1&
#3000000
0-
0&
1$
0%
1.
1+
19
1?
0'
0,
0#
